{
    "fieldId": 7,
    "countryList": [
        {
            "countryId": "US",
            "countryName": "United States"
        },
		{
            "countryId": "UK",
            "countryName": "United Kingdom"
        },
		{
            "countryId": "FR",
            "countryName": "France"
        },
				{
            "countryId": "VM",
            "countryName": "Vietnam"
        }
    ]
}